         run       event       nTopo   nIdTracks       nJets      nMuons       nElec   nTrueElec   nFakeElec       nPhot   nTruePhot   nFakePhot
      330470  1183721871         761         829          18           5          16           0          16          36           0          36
      330470  1183722156         360         391           6           1           3           0           3          12           0          12
      330470  1183722158           1           0           0           0           0           0           0           0           0           0
      330470  1183722342         394         428          16           0           2           0           2          15           0          15
      330470  1183723134         463         502           9           3           3           0           3          16           0          16
      330470  1183723677         583         584          17           4          13           0          13          33           0          33
      330470  1183724572         518         626          11           4           7           0           7          15           0          15
      330470  1183725127         367         460          13           2           9           0           9          16           0          16
      330470  1183726136         561         625          14           5           6           0           6          18           0          18
      330470  1183727515         408         397           6           0           7           0           7          19           0          19
      330470  1183727920         565         689          20           3           7           0           7          23           0          23
      330470  1183727953         532         595          11           4           7           0           7          24           0          24
      330470  1183728466         399         442          14           1          11           0          11          14           0          14
      330470  1183728476         539         529          12           0          14           0          14          25           0          25
      330470  1183729021         390         408          15           1          12           0          12          14           0          14
      330470  1183729025         420         473          11           0           8           0           8          14           0          14
      330470  1183730486         406         399          17           3           0           0           0          20           0          20
      330470  1183731705         735         776          35           4          14           0          14          42           0          42
      330470  1183731814         591         538          12           4           6           0           6          29           0          29
      330470  1183731884         420         373           6           2           2           0           2          12           0          12
      330470  1183732647         467         501          12           1           8           0           8          20           0          20
      330470  1183733040         381         290           6           2           5           0           5          10           0          10
      330470  1183733070         431         556          16           1          16           0          16          24           0          24
      330470  1183733727         678         791          19           1           5           0           5          35           0          35
      330470  1183734651         361         375          14           3           5           0           5          18           0          18
      330470  1183734704         438         445          16           6           2           0           2          23           0          23
      330470  1183734871         556         604          14           2          14           0          14          21           0          21
      330470  1183735332         406         389           9           1           5           0           5          10           0          10
      330470  1183735593         480         452          15           1           5           0           5          26           0          26
      330470  1183735786         311         217           7           1           0           0           0           8           0           8
      330470  1183736050         589         692           5           1          11           0          11          29           0          29
      330470  1183736197         453         486           9           5           7           0           7          15           0          15
      330470  1183736364         427         405          15           1           6           0           6          16           0          16
      330470  1183736418         466         487          12           3          13           0          13          17           0          17
      330470  1183736475         741         709          15           1           2           0           2          22           0          22
      330470  1183737047         481         540          19           1           6           0           6          24           0          24
      330470  1183737710         492         504          15           3          22           0          22          20           0          20
      330470  1183738386         525         474          10           2          20           0          20          30           0          30
      330470  1183738728           1           0           0           0           0           0           0           0           0           0
      330470  1183738949         368         450           9           1           5           0           5          11           0          11
      330470  1183739966         531         429          14           1          12           0          12          24           0          24
      330470  1183740967         558         648          17           0           4           0           4          19           0          19
      330470  1183741011         240         346           6           3           5           0           5          13           0          13
      330470  1183742016         289         307           6           1           4           0           4           6           0           6
      330470  1183742376         372         396          12           1           2           0           2          10           0          10
      330470  1183742489         152         127           2           1           1           0           1           1           0           1
      330470  1183742713         364         436           7           2          11           0          11          16           0          16
      330470  1183743040         285         326           5           0           3           0           3           5           0           5
      330470  1183743941         404         367          14           2          15           0          15          13           0          13
      330470  1183744491         530         648          17           1          13           0          13          16           0          16
      330470  1183744557         302         358           8           0           4           0           4          11           0          11
      330470  1183744835         411         414           8           1           8           0           8          20           0          20
      330470  1183744941         316         384          14           2           7           0           7          17           0          17
      330470  1183745001         320         379           8           0          10           0          10          12           0          12
      330470  1183745791         361         400           8           0          19           0          19          20           0          20
      330470  1183745889         371         381          11           1           5           0           5          10           0          10
      330470  1183746019         446         487          11           1           7           0           7          24           0          24
      330470  1183746343         492         493          12           0           3           0           3          16           0          16
      330470  1183746391         364         441          10           2          15           0          15          20           0          20
      330470  1183746668         459         379          13           0           7           0           7          20           0          20
      330470  1183746710           6           0           0           0           0           0           0           0           0           0
      330470  1183746776         348         355          12           1           9           0           9          27           0          27
      330470  1183747953         302         377           3           2           4           0           4          10           0          10
      330470  1183748096         455         491          11           0           5           0           5          17           0          17
      330470  1183748136         663         653          15           1          12           0          12          26           0          26
      330470  1183748263         396         410          10           2           8           0           8          16           0          16
      330470  1183748421         460         422          10           1           8           0           8          15           0          15
      330470  1183748705         490         524          11           2           9           0           9          20           0          20
      330470  1183750758         436         393          10           1           4           0           4          15           0          15
      330470  1183750781         377         367          12           1           5           0           5          16           0          16
      330470  1183750906         702         757          34           3          10           0          10          29           0          29
      330470  1183751782         239         246           2           0           0           0           0           6           0           6
      330470  1183752624         347         366           7           3           5           0           5          15           0          15
      330470  1183753006         357         398          11           3           4           0           4          14           0          14
      330470  1183753030         398         352          13           2          23           0          23          20           0          20
      330470  1183753541         400         455           9           2           8           0           8          11           0          11
      330470  1183754806         470         423          14           0           2           0           2          17           0          17
      330470  1183755085         482         516          14           3          15           0          15          27           0          27
      330470  1183756180         447         374          15           0           2           0           2          16           0          16
      330470  1183756295         367         448          13           3           7           0           7          12           0          12
      330470  1183756303         565         585          12           1          24           0          24          24           0          24
      330470  1183756939         606         590          16           1          19           0          19          26           0          26
      330470  1183756951         283         271           3           1           2           0           2           4           0           4
      330470  1183757556         300         270           7           1           5           0           5          10           0          10
      330470  1183758317         685         735          16           1          13           0          13          29           0          29
      330470  1183758663         340         309           8           0           5           0           5          11           0          11
      330470  1183758709         340         255          11           2           4           0           4          12           0          12
      330470  1183758819         446         527          14           4          24           0          24          19           0          19
      330470  1183759087         476         451          15           3           8           0           8          19           0          19
      330470  1183759951         610         726          20           6          18           0          18          32           0          32
      330470  1183760662         421         421          15           1           8           0           8          18           0          18
      330470  1183760713         430         488          17           0          11           0          11          21           0          21
      330470  1183761092         301         436          10           3           6           0           6           8           0           8
      330470  1183762287         384         435          14           3           4           0           4          13           0          13
      330470  1183762295         411         424          16           2           9           0           9          16           0          16
      330470  1183762346         487         456          19           3          29           0          29          26           0          26
      330470  1183762622         389         401           5           2           6           0           6          15           0          15
      330470  1183762728         539         497          17           0          19           0          19          27           0          27
      330470  1183764544         400         364           5           2           9           0           9          15           0          15
      330470  1183764842         585         645          17           1          15           0          15          29           0          29
      330470  1183765366         464         521           9           2           6           0           6          10           0          10
      330470  1183765436         301         213          10           0           5           0           5           5           0           5
      330470  1183767528         668         645          12           1           9           0           9          28           0          28
      330470  1183767718         467         455          18           2          15           0          15          17           0          17
      330470  1183768132         410         431           9           2           4           0           4          15           0          15
      330470  1183768747         598         593          14           3          24           0          24          25           0          25
      330470  1183768758         656         729          17           3          15           0          15          24           0          24
      330470  1183769295         342         337           7           2           0           0           0           6           0           6
      330470  1183769514         383         374           9           3           2           0           2          14           0          14
      330470  1183769648         527         579           8           4           6           0           6          17           0          17
      330470  1183769939         348         362          10           3           8           0           8          11           0          11
      330470  1183770542         525         547          14           2          12           0          12          28           0          28
      330470  1183771482         391         433          11           1           8           0           8          17           0          17
      330470  1183771836         373         452           8           3           1           0           1          13           0          13
      330470  1183771838         409         313          11           0           3           0           3          18           0          18
      330470  1183771849         555         454          12           2           9           0           9          25           0          25
      330470  1183773222         341         390           4           3           2           0           2           1           0           1
      330470  1183773321         583         543          17           1           7           0           7          33           0          33
      330470  1183773556         421         376           7           0           7           0           7          17           0          17
      330470  1183773832         307         209           7           0           2           0           2          13           0          13
      330470  1183774235         325         346           8           1          11           0          11          13           0          13
      330470  1183775004         453         401           8           1           1           0           1          17           0          17
      330470  1183775209          57           0           0           0           0           0           0           0           0           0
      330470  1183776444         450         416          13           3           4           0           4          14           0          14
      330470  1183776871         425         441          12           4           9           0           9          18           0          18
      330470  1183777434         310         328           9           0           4           0           4          13           0          13
      330470  1183777582         422         479           9           2           9           0           9          14           0          14
      330470  1183778621         584         651          19           1           6           0           6          24           0          24
      330470  1183779564         332         314           7           3           5           0           5           7           0           7
      330470  1183779664         432         342          15           0          10           0          10          21           0          21
      330470  1183779916         499         524          11           3           5           0           5          17           0          17
      330470  1183780039         444         377          12           4           2           0           2          16           0          16
      330470  1183780441         560         546          12           4           8           0           8          29           0          29
      330470  1183781429         432         499          11           1          19           0          19          28           0          28
      330470  1183781526         711         904          13           0          13           0          13          36           0          36
      330470  1183782439         478         550          15           2           6           0           6          18           0          18
      330470  1183782592         487         572           9           3           6           0           6          16           0          16
      330470  1183782928         539         643          15           3           8           0           8          25           0          25
      330470  1183783289         507         599          14           1          15           0          15          20           0          20
      330470  1183783835         437         471          13           3          15           0          15          30           0          30
      330470  1183783921         518         489           9           1          22           0          22          32           0          32
      330470  1183784212         561         538          22           0          36           0          36          28           0          28
      330470  1183784686         458         491          20           7           5           0           5          23           0          23
      330470  1183784788         350         327           8           2          18           0          18          16           0          16
      330470  1183785404         682         718           7           4          11           0          11          32           0          32
      330470  1183786663         355         435          14           2           2           0           2           6           0           6
      330470  1183787021         684         606          16           2           9           0           9          33           0          33
      330470  1183787124         431         382          10           2           3           0           3          17           0          17
      330470  1183787218         252         197           6           0           3           0           3           8           0           8
      330470  1183787604         393         409          13           1           6           0           6          18           0          18
      330470  1183787946         321         325           5           0           2           0           2           9           0           9
      330470  1183789290         453         434          15           0           7           0           7          24           0          24
      330470  1183789772         509         556          20           1          17           0          17          29           0          29
      330470  1183791251         244         235           6           0           3           0           3          10           0          10
      330470  1183791330         473         698          15           2           9           0           9          16           0          16
      330470  1183791750         557         618          13           0           7           0           7          22           0          22
      330470  1183792274         381         397          13           0          24           0          24          27           0          27
      330470  1183792395         364         289          13           0          17           0          17          14           0          14
      330470  1183792990         468         512          15           4          24           0          24          28           0          28
      330470  1183793190         396         528          11           1          10           0          10          14           0          14
      330470  1183793693         492         625          23           2          16           0          16          29           0          29
      330470  1183793783         562         522          13           6          20           0          20          27           0          27
      330470  1183794278         454         558          11           0           7           0           7           9           0           9
      330470  1183794508         448         473          13           2          17           0          17          19           0          19
      330470  1183794655         393         364           7           1           3           0           3           5           0           5
      330470  1183794666         774         930          28           2          12           0          12          33           0          33
      330470  1183795240         458         462          12           4           9           0           9          23           0          23
      330470  1183795260         773         648          23           2           6           0           6          37           0          37
      330470  1183795329         458         355          18           0           4           0           4          14           0          14
      330470  1183795353         507         618          16           0          13           0          13          31           0          31
      330470  1183797124         420         346           6           1           4           0           4          11           0          11
      330470  1183797477         347         448          16           3          13           0          13          13           0          13
      330470  1183797613         396         345          12           2           4           0           4          19           0          19
      330470  1183797726         498         459          17           0           5           0           5          19           0          19
      330470  1183797746         356         340          10           1           1           0           1           7           0           7
      330470  1183797788         582         502          21           2          10           0          10          34           0          34
      330470  1183798102         796         914          22           4          12           0          12          37           0          37
      330470  1183798170         408         355          11           2           5           0           5          14           0          14
      330470  1183799182         527         499           9           0           3           0           3          22           0          22
      330470  1183799941         511         502          17           2          14           0          14          17           0          17
      330470  1183800136         567         652          20           3          13           0          13          33           0          33
      330470  1183800710         470         474          12           1           5           0           5          17           0          17
      330470  1183801077         415         446           9           1           5           0           5          22           0          22
      330470  1183801428         382         344          10           0           4           0           4           9           0           9
      330470  1183802242         434         392          12           3           8           0           8          19           0          19
      330470  1183804252         552         594          17           2          12           0          12          21           0          21
      330470  1183804485         453         502          13           1          16           0          16          21           0          21
      330470  1183804522         298         235           7           1           0           0           0           7           0           7
      330470  1183806136         476         509          14           4           5           0           5          18           0          18
      330470  1183806285          10           0           0           0           0           0           0           0           0           0
      330470  1183806454         571         708          15           4          13           0          13          27           0          27
      330470  1183806526         264         319           3           1           2           0           2           7           0           7
      330470  1183807145         492         455          19           0          15           0          15          33           0          33
      330470  1183807361         528         601          10           3           9           0           9          27           0          27
      330470  1183807825         540         584          15           1          14           0          14          30           0          30
      330470  1183808819          67           0           1           0           0           0           0           4           0           4
      330470  1183809482         344         321           8           0           7           0           7          19           0          19
      330470  1183810229         534         491          10           2           9           0           9          31           0          31
      330470  1183810298         469         442          11           2          16           0          16          18           0          18
      330470  1183810366         418         450          13           1           2           0           2          11           0          11
      330470  1183810794         564         518          11           2           4           0           4          20           0          20
      330470  1183810833         344         387          10           1           9           0           9          12           0          12
      330470  1183811141         533         498          14           5           8           0           8          11           0          11
      330470  1183812547         491         472          19           5          18           0          18          24           0          24
      330470  1183812810         277         347           4           0           1           0           1           8           0           8
      330470  1183812846         410         466          10           1           7           0           7          20           0          20
      330470  1183813497         472         502           5           1           7           0           7          21           0          21
      330470  1183814282         230         216           1           2           0           0           0           1           0           1
      330470  1183814497         446         496           8           1           6           0           6           8           0           8
      330470  1183814582         455         492          17           2          12           0          12          24           0          24
      330470  1183815531         430         432          11           2          11           0          11          25           0          25
      330470  1183815710         298         321           7           1           4           0           4           9           0           9
      330470  1183815765         436         463          10           3          16           0          16          21           0          21
      330470  1183815791         645         693          22           1           9           0           9          23           0          23
      330470  1183815887         348         314           7           1           2           0           2          11           0          11
      330470  1183816290         430         425          13           1           6           0           6          18           0          18
      330470  1183817753         363         433           7           1           4           0           4          11           0          11
      330470  1183818559         391         522           7           2           7           0           7          18           0          18
      330470  1183819555         464         472          13           0           9           0           9          20           0          20
      330470  1183819588         406         330          12           1           6           0           6           8           0           8
      330470  1183820651         471         466          10           2           6           0           6          17           0          17
      330470  1183821157         321         214           8           2           2           0           2          11           0          11
      330470  1183821186         602         614          17           1           9           0           9          30           0          30
      330470  1183822476         453         502          13           0           9           0           9          20           0          20
      330470  1183823625         409         340           6           3          10           0          10          16           0          16
      330470  1183824371         362         307          10           0           2           0           2          12           0          12
      330470  1183824531         393         364          17           4          13           0          13          17           0          17
      330470  1183824603         479         406           5           1          14           0          14          27           0          27
      330470  1183824788         473         362          17           3           6           0           6          28           0          28
      330470  1183824934         357         455          10           2           7           0           7          13           0          13
      330470  1183825276         370         333           6           1           2           0           2          10           0          10
      330470  1183826504         533         505          16           4           7           0           7          26           0          26
      330470  1183826935         290         251          15           0           7           0           7          17           0          17
      330470  1183827424         359         351          15           1          22           0          22          16           0          16
      330470  1183828215         521         418          15           2          12           0          12          30           0          30
      330470  1183828765         562         596          12           3           4           0           4          25           0          25
      330470  1183828961         522         572          12           2           4           0           4          19           0          19
      330470  1183829595         473         419          16           0           5           0           5          17           0          17
      330470  1183829748         592         614          14           0          10           0          10          23           0          23
      330470  1183830135         428         474          13           1          14           0          14          22           0          22
      330470  1183830977         336         261          11           0           3           0           3          13           0          13
      330470  1183830990         540         523          11           4          15           0          15          27           0          27
      330470  1183831582         393         452          10           2           7           0           7          22           0          22
      330470  1183832519         522         519          16           4          20           0          20          25           0          25
      330470  1183832772         304         355          12           0          24           0          24          17           0          17
      330470  1183834476         519         539          17           9           9           0           9          25           0          25
      330470  1183835286         339         351           8           1           1           0           1          13           0          13
      330470  1183836095         394         312          14           0           7           0           7          23           0          23
      330470  1183836112         514         536          11           1          10           0          10          20           0          20
      330470  1183836199         475         469          14           0           9           0           9          16           0          16
      330470  1183836240         489         587          13           5           5           0           5          13           0          13
      330470  1183836600         493         435          19           1           6           0           6          30           0          30
      330470  1183837702         471         433          15           6          17           0          17          30           0          30
      330470  1183837736         456         490           8           0           8           0           8          16           0          16
      330470  1183839277         582         567          21           0          17           0          17          41           0          41
      330470  1183839321         414         350           9           4           2           0           2          19           0          19
      330470  1183839551         486         438          14           0           5           0           5          22           0          22
      330470  1183840149         458         446          10           2           9           0           9          24           0          24
      330470  1183840173           2           0           0           1           0           0           0           0           0           0
      330470  1183840255         384         492          17           1          23           0          23          25           0          25
      330470  1183840606         166         243           5           0           4           0           4           5           0           5
      330470  1183841326         447         461          14           0           5           0           5          13           0          13
      330470  1183841473         532         464          11           4           9           0           9          18           0          18
      330470  1183841864         392         328           3           1           4           0           4          16           0          16
      330470  1183842339         196         156           3           0           0           0           0           3           0           3
      330470  1183842483         550         508          14           0           5           0           5          19           0          19
      330470  1183842622         404         444           8           1           9           0           9          21           0          21
      330470  1183842772         432         457          10           0          16           0          16          23           0          23
      330470  1183843837         357         374           8           0           7           0           7          13           0          13
      330470  1183844385         400         394          14           1           4           0           4           8           0           8
      330470  1183846886         385         267          13           0           4           0           4          20           0          20
      330470  1183847401         470         461          10           2           8           0           8          18           0          18
      330470  1183847806         433         488          10           1          15           0          15          20           0          20
      330470  1183848014         277         272           7           1          14           0          14          11           0          11
      330470  1183848066         352         394           8           1          10           0          10          20           0          20
      330470  1183848576         546         592          17           5           5           0           5          24           0          24
      330470  1183848643         540         479          11           5           5           0           5          31           0          31
      330470  1183848807         343         351           6           0           1           0           1          15           0          15
      330470  1183849444         393         338          17           2           3           0           3          22           0          22
      330470  1183849956         253         278          11           2          10           0          10          11           0          11
      330470  1183850785         343         364           7           1           6           0           6          12           0          12
      330470  1183851527         609         568          19           1           9           0           9          27           0          27
      330470  1183852090         470         447          14           3           4           0           4          17           0          17
      330470  1183852355         410         414           7           0           3           0           3          14           0          14
      330470  1183852362         567         668          17           2          16           0          16          29           0          29
      330470  1183852486         387         404          12           2           4           0           4          15           0          15
      330470  1183852552         509         470          11           4          18           0          18          20           0          20
      330470  1183853281         404         390           6           2           5           0           5          14           0          14
      330470  1183853303         555         525          17           5           6           0           6          25           0          25
      330470  1183853317         313         327          11           4           4           0           4          15           0          15
      330470  1183853842         629         583          22           1          10           0          10          28           0          28
      330470  1183854086         313         362          10           1           6           0           6          11           0          11
      330470  1183854099         444         521           8           0           2           0           2          13           0          13
      330470  1183854665         506         450          12           0           6           0           6          14           0          14
      330470  1183855151         279         207           6           0           2           0           2           3           0           3
      330470  1183855909         300         282           7           5           2           0           2           6           0           6
      330470  1183856263         586         620          11           4          10           0          10          29           0          29
      330470  1183856484         298         260           6           4           7           0           7          10           0          10
      330470  1183856702         357         283           9           2           1           0           1           8           0           8
      330470  1183856842         380         399          11           0           7           0           7          20           0          20
      330470  1183857840         423         330           6           0           1           0           1          13           0          13
      330470  1183858892         460         508          12           2           8           0           8          12           0          12
      330470  1183859367         554         535          12           1           4           0           4          26           0          26
      330470  1183859426         632         573          18           1          23           0          23          32           0          32
      330470  1183859771         540         597          23           3          13           0          13          27           0          27
      330470  1183861290         541         453          18           3           8           0           8          25           0          25
      330470  1183862039         312         354           8           1           9           0           9          13           0          13
      330470  1183862102         432         490           7           2           5           0           5          15           0          15
      330470  1183864358         393         496          10           2           6           0           6          19           0          19
      330470  1183864963         403         469          11           1           7           0           7          11           0          11
      330470  1183865268         406         469           9           2           3           0           3          10           0          10
      330470  1183865985         317         290           8           0           2           0           2          13           0          13
      330470  1183867774         340         444          10           1           8           0           8          11           0          11
      330470  1183868866         493         559          10           0           7           0           7          18           0          18
      330470  1183869024         565         538          13           4          11           0          11          27           0          27
      330470  1183869310         402         348           9           3           1           0           1          16           0          16
      330470  1183869356         265         338           5           2           1           0           1           6           0           6
      330470  1183870427         309         228           7           2           5           0           5          12           0          12
      330470  1183871236         389         311           8           0           5           0           5          14           0          14
      330470  1183872430         298         309           7           2           2           0           2          11           0          11
      330470  1183873300         384         372          11           3           5           0           5          15           0          15
      330470  1183874095         543         641          16           4           8           0           8          25           0          25
      330470  1183874756         311         208           7           1           1           0           1           9           0           9
      330470  1183875240         638         761          11           1           9           0           9          28           0          28
      330470  1183875307         387         282          11           2           2           0           2          13           0          13
      330470  1183875842         334         410           6           0           3           0           3          18           0          18
      330470  1183876008         349         262           8           0           8           0           8          15           0          15
      330470  1183876257         276         365          12           0          15           0          15          17           0          17
      330470  1183876690         399         425          10           0           4           0           4          11           0          11
      330470  1183878183         469         386          14           2           7           0           7          16           0          16
      330470  1183878278         337         374           9           1           5           0           5          10           0          10
      330470  1183878363         529         582          11           5          15           0          15          26           0          26
      330470  1183879080         615         645          15           3           9           0           9          30           0          30
      330470  1183879154         597         627           8           4           8           0           8          28           0          28
      330470  1183879547         423         439           8           2           0           0           0          13           0          13
      330470  1183879670         489         525          12           2          13           0          13          21           0          21
      330470  1183879957         494         581          20           0          12           0          12          26           0          26
      330470  1183880152         349         453          12           3           1           0           1          16           0          16
      330470  1183880330         714         585          19           4          25           0          25          52           0          52
      330470  1183880565         526         370          18           1          10           0          10          35           0          35
      330470  1183880598         344         343          12           1           0           0           0           8           0           8
      330470  1183881102         302         278           7           1           1           0           1           8           0           8
      330470  1183881663         380         438          12           0          10           0          10          15           0          15
      330470  1183882016         429         458          16           0           4           0           4          13           0          13
      330470  1183882345         412         567          14           0           3           0           3          18           0          18
      330470  1183882414         401         321          13           3           1           0           1          12           0          12
      330470  1183882641         360         271          13           1           7           0           7          17           0          17
      330470  1183882886         422         490           9           2           2           0           2          10           0          10
      330470  1183884717         238         261           5           1           2           0           2           6           0           6
      330470  1183885069         292         240           8           2          12           0          12          13           0          13
      330470  1183885910         310         358          11           1          11           0          11          16           0          16
      330470  1183889121         367         381          17           2          11           0          11          20           0          20
      330470  1183889788         361         469          10           3          12           0          12          21           0          21
      330470  1183890058         429         392          15           1           6           0           6          21           0          21
      330470  1183890245         558         580          14           1           5           0           5          23           0          23
      330470  1183891126         511         512          15           4          10           0          10          18           0          18
      330470  1183891888         517         590          18           2          13           0          13          15           0          15
      330470  1183893310         354         389          10           0           4           0           4          15           0          15
      330470  1183893518         503         620          10           4           9           0           9          12           0          12
      330470  1183894187         466         443          12           1          13           0          13          15           0          15
      330470  1183895022         461         448          11           2           5           0           5          14           0          14
      330470  1183896389         346         403           9           0           7           0           7          14           0          14
      330470  1183896930         499         497          15           2           4           0           4          19           0          19
      330470  1183896962         496         484          13           3           4           0           4          29           0          29
      330470  1183898226         431         450           9           4           2           0           2          11           0          11
      330470  1183899486         545         696          19           4          16           0          16          28           0          28
      330470  1183899562         274         242           8           2           7           0           7          12           0          12
      330470  1183899751         344         353          10           2           6           0           6          13           0          13
      330470  1183899810         410         344          16           0           5           0           5          23           0          23
      330470  1183900525         426         346          10           4           9           0           9          18           0          18
      330470  1183900622         378         296          10           7          10           0          10           8           0           8
      330470  1183900768         526         620          11           1           5           0           5          20           0          20
      330470  1183901965         365         364          13           3           5           0           5          15           0          15
      330470  1183902483         403         556           8           2           3           0           3          16           0          16
      330470  1183903458         514         611          16           4          12           0          12          19           0          19
      330470  1183904017         510         574          14           2           9           0           9          20           0          20
      330470  1183904322         462         485           6           2           2           0           2           8           0           8
      330470  1183905778         417         501          16           1           7           0           7          14           0          14
      330470  1183905825         411         390          13           2           5           0           5          13           0          13
      330470  1183906093         541         525          14           1           5           0           5          23           0          23
      330470  1183906408         465         511          16           2          12           0          12          17           0          17
      330470  1183906803         370         325          15           0          22           0          22          31           0          31
      330470  1183907843         453         481          17           1          10           0          10           9           0           9
      330470  1183908667         350         464          15           1           6           0           6           9           0           9
      330470  1183908690         449         527          12           2           5           0           5          22           0          22
      330470  1183908710         426         486           8           2           4           0           4           9           0           9
      330470  1183908744         541         559           9           1           3           0           3          19           0          19
      330470  1183909765         478         402          19           1          12           0          12          28           0          28
      330470  1183910082         699         605          15           5           5           0           5          26           0          26
      330470  1183910510         247         323           6           1           7           0           7           9           0           9
      330470  1183910733         396         439           7           1          10           0          10          12           0          12
      330470  1183912333         584         519          17           4          15           0          15          42           0          42
      330470  1183914006         420         399          14           0          15           0          15          24           0          24
      330470  1183914114         562         559          14           4          13           0          13          26           0          26
      330470  1183916856         326         380           4           0           2           0           2          14           0          14
      330470  1183918650         391         423          15           1           8           0           8          16           0          16
      330470  1183918694         364         429           7           0           2           0           2           7           0           7
      330470  1183919637         448         528           7           2           5           0           5          14           0          14
      330470  1183919773         240         206           4           0           2           0           2           6           0           6
      330470  1183919850         297         329           8           0           3           0           3           8           0           8
      330470  1183920419         468         458           8           0           2           0           2          14           0          14
      330470  1183920452         514         495          14           1           5           0           5          17           0          17
      330470  1183921161         491         534          11           2           5           0           5          23           0          23
      330470  1183921212         602         623          16           5          16           0          16          25           0          25
      330470  1183921894         119           0           0           1           0           0           0           3           0           3
      330470  1183922353         586         547          16           1           9           0           9          22           0          22
      330470  1183923963         422         453          10           0           5           0           5          12           0          12
      330470  1183924996         367         385          10           6           2           0           2           7           0           7
      330470  1183926015         402         365          15           0           2           0           2          19           0          19
      330470  1183927700         330         321           9           3           6           0           6           4           0           4
      330470  1183927897         390         347           8           0           3           0           3          10           0          10
      330470  1183929011         454         453          14           0          12           0          12          30           0          30
      330470  1183929579         449         385           8           3           2           0           2          16           0          16
      330470  1183929756         645         749          12           2          14           0          14          28           0          28
      330470  1183930152         444         419          16           2           4           0           4          13           0          13
      330470  1183930444         347         384           6           4           3           0           3          14           0          14
      330470  1183930564         539         430          21           2          11           0          11          36           0          36
      330470  1183931811         465         374          21           0           8           0           8          18           0          18
      330470  1183932465         456         541          19           3          11           0          11          17           0          17
      330470  1183933264         514         449          11           2           4           0           4          10           0          10
      330470  1183934061         556         608          15           2          15           0          15          31           0          31
      330470  1183934188         559         640          19           0          11           0          11          28           0          28
      330470  1183935176         505         634          10           1           7           0           7          21           0          21
      330470  1183935243         406         422          10           3          15           0          15          26           0          26
      330470  1183936048         505         443          22           0          13           0          13          24           0          24
      330470  1183937915         358         331           9           0           5           0           5           9           0           9
      330470  1183937927         530         536          16           2           8           0           8          24           0          24
      330470  1183938712         427         384          10           1           2           0           2          20           0          20
      330470  1183938824         345         396          10           2           3           0           3          11           0          11
      330470  1183939219         533         500           9           2           9           0           9          16           0          16
      330470  1183939285         273         161           6           0           5           0           5           8           0           8
      330470  1183939881         561         506          11           3           6           0           6          22           0          22
      330470  1183941479         270         333           5           0           2           0           2           6           0           6
      330470  1183943435          21           0           0           0           0           0           0           0           0           0
      330470  1183944121         428         400          13           2           5           0           5          25           0          25
      330470  1183944525         423         493           9           1           6           0           6          13           0          13
      330470  1183946835         778         885          22           3          24           0          24          38           0          38
      330470  1183949177         403         463           8           0           7           0           7          17           0          17
      330470  1183949782         548         521          20           2          12           0          12          20           0          20
      330470  1183952907         561         641          14           4           9           0           9          16           0          16
      330470  1183953399         578         478          14           0          13           0          13          31           0          31
      330470  1183953421         469         329          15           3           3           0           3          11           0          11
      330470  1183953881         339         367           7           2           2           0           2           6           0           6
      330470  1183954827         344         435          11           1           7           0           7          14           0          14
      330470  1183957781           3           0           0           0           0           0           0           0           0           0
      330470  1183958083         367         377          10           1          10           0          10          13           0          13
      330470  1183960085         586         580          16           4           7           0           7          13           0          13
      330470  1183960556         370         350           8           1           4           0           4           8           0           8
      330470  1183961006         467         453          19           1          15           0          15          19           0          19
      330470  1183961573         616         716          14           4          11           0          11          22           0          22
      330470  1183961597         351         258           9           1           3           0           3          14           0          14
      330470  1183963195         522         566          18           1          13           0          13          20           0          20
      330470  1183969128         303         350           8           1          12           0          12          17           0          17
      330470  1183969905         585         593          12           1          14           0          14          23           0          23
      330470  1183970393         350         359           9           0           8           0           8          14           0          14
      330470  1183970582         174         222           4           1           2           0           2           5           0           5
      330470  1183973235         544         532          13           1           5           0           5          17           0          17
      330470  1183974800         386         405          11           1           4           0           4          15           0          15
      330470  1183975144         422         516          11           0           8           0           8          28           0          28
      330470  1183977930         266         296           3           0           6           0           6           8           0           8
      330470  1183979636         434         501           9           1           4           0           4          10           0          10
      330470  1183982156         373         450           5           1           2           0           2          10           0          10
      330470  1183982855         448         401          13           2           2           0           2          14           0          14
      330470  1183983079         512         545           9           1           7           0           7          29           0          29
      330470  1183983113         387         382          11           1           3           0           3          17           0          17
      330470  1183984897         342         292           7           0          14           0          14          15           0          15
      330470  1183985311         421         573           9           1          11           0          11          13           0          13
      330470  1183987027         468         480          14           0           4           0           4          17           0          17
      330470  1183988197         390         420           8           4           4           0           4          19           0          19
      330470  1183991258         380         392           8           2           1           0           1          13           0          13
      330470  1183991399         859         817          33           0           9           0           9          44           0          44
      330470  1183994870         492         542          11           1          12           0          12          25           0          25
      330470  1183995076         239         205           3           1           0           0           0           5           0           5
      330470  1183995604         394         354          18           0           2           0           2          13           0          13
      330470  1183995956         394         390           8           2           8           0           8          12           0          12
      330470  1183997552         522         536          13           0           4           0           4          23           0          23
      330470  1183997623         408         325          15           2           6           0           6          14           0          14
      330470  1183997905         350         316          10           0           1           0           1           6           0           6
      330470  1184001332         450         407          13           5          11           0          11          26           0          26
      330470  1184003671         421         385          14           1           6           0           6          16           0          16
      330470  1184007839         421         439          11           3           9           0           9          15           0          15
      330470  1184010792         477         467           9           0           5           0           5          15           0          15
      330470  1184011907         359         414          11           1           2           0           2          16           0          16
      330470  1184012123         368         335          11           1          10           0          10          22           0          22
      330470  1184013681         311         241           9           0           1           0           1          12           0          12
      330470  1184014074         358         358          12           0           3           0           3          12           0          12
      330470  1184016450         487         502          16           1          13           0          13          29           0          29
      330470  1184019719         414         368          13           1           3           0           3          20           0          20
      330470  1184020401         563         453          15           3           7           0           7          28           0          28
      330470  1184026109         415         332          13           0          11           0          11          20           0          20
      330470  1184026603         601         606          17           2           6           0           6          26           0          26
      330470  1184027737         477         484          11           0           0           0           0          16           0          16
      330470  1184028312         570         580          21           1          10           0          10          30           0          30
      330470  1184044299         105           0           0           0           0           0           0           0           0           0
      330470  1184045730         361         462          10           1           5           0           5          14           0          14
      330470  1184048892         508         455          16           1           8           0           8          30           0          30
      330470  1184054880         375         335           6           0           2           0           2           6           0           6
      330470  1184055196         330         274           9           1           4           0           4          11           0          11
      330470  1184064491          68           0           1           0           0           0           0           0           0           0
      330470  1184065397          91           0           0           0           0           0           0           3           0           3
